2024-03-28T02:24:29+00:00 CRITICAL Uncaught Exception: Access denied. in C:\laragon\www\jari_landing_page\wp-content\plugins\elementor\core\settings\page\manager.php:105 CONTEXT: {"error":{"type":1,"file":"C:\\laragon\\www\\jari_landing_page\\wp-content\\plugins\\elementor\\core\\settings\\page\\manager.php","line":105},"backtrace":["#0 C:\\laragon\\www\\jari_landing_page\\wp-content\\plugins\\elementor\\core\\base\\document.php(1772): Elementor\\Core\\Settings\\Page\\Manager->ajax_before_save_settings(Array, NULL)\n#1 C:\\laragon\\www\\jari_landing_page\\wp-content\\plugins\\elementor\\core\\base\\document.php(891): Elementor\\Core\\Base\\Document->save_settings(Array)\n#2 C:\\laragon\\www\\jari_landing_page\\wp-content\\themes\\industrium\\core\\import\\import.php(185): Elementor\\Core\\Base\\Document->update_settings(Array)\n#3 C:\\laragon\\www\\jari_landing_page\\wp-includes\\class-wp-hook.php(324): industrium_ocdi_after_import_setup(Array)\n#4 C:\\laragon\\www\\jari_landing_page\\wp-includes\\class-wp-hook.php(348): WP_Hook->apply_filters('', Array)\n#5 C:\\laragon\\www\\jari_landing_page\\wp-includes\\plugin.php(565): WP_Hook->do_action(Array)\n#6 C:\\laragon\\www\\jari_landing_page\\wp-includes\\plugin.php(746): do_action_ref_array('pt-ocdi\/after_i"]}
2024-03-28T02:27:07+00:00 CRITICAL Uncaught Exception: Access denied. in C:\laragon\www\jari_landing_page\wp-content\plugins\elementor\core\settings\page\manager.php:105 CONTEXT: {"error":{"type":1,"file":"C:\\laragon\\www\\jari_landing_page\\wp-content\\plugins\\elementor\\core\\settings\\page\\manager.php","line":105},"backtrace":["#0 C:\\laragon\\www\\jari_landing_page\\wp-content\\plugins\\elementor\\core\\base\\document.php(1772): Elementor\\Core\\Settings\\Page\\Manager->ajax_before_save_settings(Array, NULL)\n#1 C:\\laragon\\www\\jari_landing_page\\wp-content\\plugins\\elementor\\core\\base\\document.php(891): Elementor\\Core\\Base\\Document->save_settings(Array)\n#2 C:\\laragon\\www\\jari_landing_page\\wp-content\\themes\\industrium\\core\\import\\import.php(185): Elementor\\Core\\Base\\Document->update_settings(Array)\n#3 C:\\laragon\\www\\jari_landing_page\\wp-includes\\class-wp-hook.php(324): industrium_ocdi_after_import_setup(Array)\n#4 C:\\laragon\\www\\jari_landing_page\\wp-includes\\class-wp-hook.php(348): WP_Hook->apply_filters('', Array)\n#5 C:\\laragon\\www\\jari_landing_page\\wp-includes\\plugin.php(565): WP_Hook->do_action(Array)\n#6 C:\\laragon\\www\\jari_landing_page\\wp-includes\\plugin.php(746): do_action_ref_array('pt-ocdi\/after_i"]}
2024-03-28T02:33:07+00:00 CRITICAL Uncaught Exception: Access denied. in C:\laragon\www\jari_landing_page\wp-content\plugins\elementor\core\settings\page\manager.php:105 CONTEXT: {"error":{"type":1,"file":"C:\\laragon\\www\\jari_landing_page\\wp-content\\plugins\\elementor\\core\\settings\\page\\manager.php","line":105},"backtrace":["#0 C:\\laragon\\www\\jari_landing_page\\wp-content\\plugins\\elementor\\core\\base\\document.php(1772): Elementor\\Core\\Settings\\Page\\Manager->ajax_before_save_settings(Array, NULL)\n#1 C:\\laragon\\www\\jari_landing_page\\wp-content\\plugins\\elementor\\core\\base\\document.php(891): Elementor\\Core\\Base\\Document->save_settings(Array)\n#2 C:\\laragon\\www\\jari_landing_page\\wp-content\\themes\\industrium\\core\\import\\import.php(185): Elementor\\Core\\Base\\Document->update_settings(Array)\n#3 C:\\laragon\\www\\jari_landing_page\\wp-includes\\class-wp-hook.php(324): industrium_ocdi_after_import_setup(Array)\n#4 C:\\laragon\\www\\jari_landing_page\\wp-includes\\class-wp-hook.php(348): WP_Hook->apply_filters('', Array)\n#5 C:\\laragon\\www\\jari_landing_page\\wp-includes\\plugin.php(565): WP_Hook->do_action(Array)\n#6 C:\\laragon\\www\\jari_landing_page\\wp-includes\\plugin.php(746): do_action_ref_array('pt-ocdi\/after_i"]}
2024-03-28T02:34:44+00:00 CRITICAL Uncaught Exception: Access denied. in C:\laragon\www\jari_landing_page\wp-content\plugins\elementor\core\settings\page\manager.php:105 CONTEXT: {"error":{"type":1,"file":"C:\\laragon\\www\\jari_landing_page\\wp-content\\plugins\\elementor\\core\\settings\\page\\manager.php","line":105},"backtrace":["#0 C:\\laragon\\www\\jari_landing_page\\wp-content\\plugins\\elementor\\core\\base\\document.php(1772): Elementor\\Core\\Settings\\Page\\Manager->ajax_before_save_settings(Array, NULL)\n#1 C:\\laragon\\www\\jari_landing_page\\wp-content\\plugins\\elementor\\core\\base\\document.php(891): Elementor\\Core\\Base\\Document->save_settings(Array)\n#2 C:\\laragon\\www\\jari_landing_page\\wp-content\\themes\\industrium\\core\\import\\import.php(185): Elementor\\Core\\Base\\Document->update_settings(Array)\n#3 C:\\laragon\\www\\jari_landing_page\\wp-includes\\class-wp-hook.php(324): industrium_ocdi_after_import_setup(Array)\n#4 C:\\laragon\\www\\jari_landing_page\\wp-includes\\class-wp-hook.php(348): WP_Hook->apply_filters('', Array)\n#5 C:\\laragon\\www\\jari_landing_page\\wp-includes\\plugin.php(565): WP_Hook->do_action(Array)\n#6 C:\\laragon\\www\\jari_landing_page\\wp-includes\\plugin.php(746): do_action_ref_array('pt-ocdi\/after_i"]}
2024-03-28T02:36:57+00:00 CRITICAL Uncaught Exception: Access denied. in C:\laragon\www\jari_landing_page\wp-content\plugins\elementor\core\settings\page\manager.php:105 CONTEXT: {"error":{"type":1,"file":"C:\\laragon\\www\\jari_landing_page\\wp-content\\plugins\\elementor\\core\\settings\\page\\manager.php","line":105},"backtrace":["#0 C:\\laragon\\www\\jari_landing_page\\wp-content\\plugins\\elementor\\core\\base\\document.php(1772): Elementor\\Core\\Settings\\Page\\Manager->ajax_before_save_settings(Array, NULL)\n#1 C:\\laragon\\www\\jari_landing_page\\wp-content\\plugins\\elementor\\core\\base\\document.php(891): Elementor\\Core\\Base\\Document->save_settings(Array)\n#2 C:\\laragon\\www\\jari_landing_page\\wp-content\\themes\\industrium\\core\\import\\import.php(185): Elementor\\Core\\Base\\Document->update_settings(Array)\n#3 C:\\laragon\\www\\jari_landing_page\\wp-includes\\class-wp-hook.php(324): industrium_ocdi_after_import_setup(Array)\n#4 C:\\laragon\\www\\jari_landing_page\\wp-includes\\class-wp-hook.php(348): WP_Hook->apply_filters('', Array)\n#5 C:\\laragon\\www\\jari_landing_page\\wp-includes\\plugin.php(565): WP_Hook->do_action(Array)\n#6 C:\\laragon\\www\\jari_landing_page\\wp-includes\\plugin.php(746): do_action_ref_array('pt-ocdi\/after_i"]}
